…
    ## [1] "El cliente más rentable es a17a7558, porque es quien más gasta en nosotros ($19,817.70) y es de los que más marcas maneja (10)"

## B

    ## # A tibble: 104 x 3
    ##    territorio cantidadMarcas ventas
    ##    <chr>               <int>  <dbl>
    ##  1 e6fd9da9                1   18.2
    ##  2 13b223c9                1   49.9
    ##  3 368301e2                2  121. 
    ##  4 79428560                1  132  
    ##  5 e034e3c8                4  247. 
    ##  6 0bfe69a0                5  384. 
    ##  7 456278b8                4  493. 
    ##  8 4163fa3f                4  580. 
    ##  9 3e0d75d0                3  647. 
    ## 10 aed8e579                5  747. 
    ## # ... with 94 more rows
…
